Блюдо;Категория;Цена;Картинка
Томатный суп;Первое;49;tomato.jpg
Чечевичный суп;Первое;35;chechevichniy.png
Cуп харчо;Первое;35;harcho.jpg
Гороховый суп;Первое;30;gororhoviy.jpg
Сырный суп;Первое;45;cheese.jpg
Борщ;Первое;40;borsh.jpg
Суп гаспачо;Первое;50;gaspacho.jpg
Картошка фри;Гарнир;50;potato.jpg
Пюре;Гарнир;30;pure.jpg
Рис;Гарнир;30;ris.jpg
Греческий;Гарнир;50;grecheskiy.jpg
Салат с помидорами;Салаты;45;salat_pomidori_i_ogurci.jpg
Чай;Салаты;15;tea.jpg
Морс;Салаты;20;mors.png
Лимонад;Напитки;20;limonad.jpg
